<?xml version="1.0" encoding="utf-8"?>
<!DOCTYPE eagle SYSTEM "eagle.dtd">
<eagle version="9.1.1">
<drawing>
<settings>
<setting alwaysvectorfont="no"/>
<setting verticaltext="up"/>
</settings>
<grid distance="0.1" unitdist="inch" unit="inch" style="lines" multiple="1" display="no" altdistance="0.01" altunitdist="inch" altunit="inch"/>
<layers>
<layer number="1" name="Top" color="4" fill="1" visible="no" active="no"/>
<layer number="16" name="Bottom" color="1" fill="1" visible="no" active="no"/>
<layer number="17" name="Pads" color="2" fill="1" visible="no" active="no"/>
<layer number="18" name="Vias" color="2" fill="1" visible="no" active="no"/>
<layer number="19" name="Unrouted" color="6" fill="1" visible="no" active="no"/>
<layer number="20" name="Dimension" color="15" fill="1" visible="no" active="no"/>
<layer number="21" name="tPlace" color="7" fill="1" visible="no" active="no"/>
<layer number="22" name="bPlace" color="7" fill="1" visible="no" active="no"/>
<layer number="23" name="tOrigins" color="15" fill="1" visible="no" active="no"/>
<layer number="24" name="bOrigins" color="15" fill="1" visible="no" active="no"/>
<layer number="25" name="tNames" color="7" fill="1" visible="no" active="no"/>
<layer number="26" name="bNames" color="7" fill="1" visible="no" active="no"/>
<layer number="27" name="tValues" color="7" fill="1" visible="no" active="no"/>
<layer number="28" name="bValues" color="7" fill="1" visible="no" active="no"/>
<layer number="29" name="tStop" color="7" fill="3" visible="no" active="no"/>
<layer number="30" name="bStop" color="7" fill="6" visible="no" active="no"/>
<layer number="31" name="tCream" color="7" fill="4" visible="no" active="no"/>
<layer number="32" name="bCream" color="7" fill="5" visible="no" active="no"/>
<layer number="33" name="tFinish" color="6" fill="3" visible="no" active="no"/>
<layer number="34" name="bFinish" color="6" fill="6" visible="no" active="no"/>
<layer number="35" name="tGlue" color="7" fill="4" visible="no" active="no"/>
<layer number="36" name="bGlue" color="7" fill="5" visible="no" active="no"/>
<layer number="37" name="tTest" color="7" fill="1" visible="no" active="no"/>
<layer number="38" name="bTest" color="7" fill="1" visible="no" active="no"/>
<layer number="39" name="tKeepout" color="4" fill="11" visible="no" active="no"/>
<layer number="40" name="bKeepout" color="1" fill="11" visible="no" active="no"/>
<layer number="41" name="tRestrict" color="4" fill="10" visible="no" active="no"/>
<layer number="42" name="bRestrict" color="1" fill="10" visible="no" active="no"/>
<layer number="43" name="vRestrict" color="2" fill="10" visible="no" active="no"/>
<layer number="44" name="Drills" color="7" fill="1" visible="no" active="no"/>
<layer number="45" name="Holes" color="7" fill="1" visible="no" active="no"/>
<layer number="46" name="Milling" color="3" fill="1" visible="no" active="no"/>
<layer number="47" name="Measures" color="7" fill="1" visible="no" active="no"/>
<layer number="48" name="Document" color="7" fill="1" visible="no" active="no"/>
<layer number="49" name="Reference" color="7" fill="1" visible="no" active="no"/>
<layer number="51" name="tDocu" color="7" fill="1" visible="no" active="no"/>
<layer number="52" name="bDocu" color="7" fill="1" visible="no" active="no"/>
<layer number="88" name="SimResults" color="9" fill="1" visible="yes" active="yes"/>
<layer number="89" name="SimProbes" color="9" fill="1" visible="yes" active="yes"/>
<layer number="90" name="Modules" color="5" fill="1" visible="yes" active="yes"/>
<layer number="91" name="Nets" color="2" fill="1" visible="yes" active="yes"/>
<layer number="92" name="Busses" color="1" fill="1" visible="yes" active="yes"/>
<layer number="93" name="Pins" color="2" fill="1" visible="no" active="yes"/>
<layer number="94" name="Symbols" color="4" fill="1" visible="yes" active="yes"/>
<layer number="95" name="Names" color="7" fill="1" visible="yes" active="yes"/>
<layer number="96" name="Values" color="7" fill="1" visible="yes" active="yes"/>
<layer number="97" name="Info" color="7" fill="1" visible="yes" active="yes"/>
<layer number="98" name="Guide" color="6" fill="1" visible="yes" active="yes"/>
<layer number="99" name="SpiceOrder" color="7" fill="1" visible="yes" active="yes"/>
</layers>
<schematic xreflabel="%F%N/%S.%C%R" xrefpart="/%S.%C%R">
<libraries>
<library name="con-4ucon" urn="urn:adsk.eagle:library:120">
<description>&lt;b&gt;4UCON TECHNOLOGY INC.&lt;/b&gt; Connector&lt;p&gt;
&lt;author&gt;Created by librarian@cadsoft.de&lt;/author&gt;</description>
<packages>
<package name="14867" urn="urn:adsk.eagle:footprint:5627/1" library_version="1">
<description>&lt;b&gt;RJ11 Connector&lt;/b&gt;&lt;p&gt;
Source: 4UCON TECHNOLOGY INC.  14867.pdf</description>
<wire x1="5.535" y1="-10.3" x2="5.535" y2="10.07" width="0.2032" layer="21"/>
<wire x1="-5.535" y1="10.07" x2="-5.535" y2="-10.3" width="0.2032" layer="21"/>
<wire x1="-5.535" y1="-10.3" x2="5.535" y2="-10.3" width="0.2032" layer="21"/>
<wire x1="-5.535" y1="10.07" x2="5.535" y2="10.07" width="0.2032" layer="21"/>
<pad name="1" x="-1.905" y="6.35" drill="0.9" diameter="1.4224"/>
<pad name="2" x="-0.635" y="8.89" drill="0.9" diameter="1.4224"/>
<pad name="3" x="0.635" y="6.35" drill="0.9" diameter="1.4224"/>
<pad name="4" x="1.905" y="8.89" drill="0.9" diameter="1.4224"/>
<text x="-5.08" y="10.795" size="1.27" layer="25">&gt;NAME</text>
<text x="-4.445" y="2.54" size="1.27" layer="27">&gt;VALUE</text>
<hole x="-3.81" y="0" drill="3.2"/>
<hole x="3.81" y="0" drill="3.2"/>
</package>
</packages>
<packages3d>
<package3d name="14867" urn="urn:adsk.eagle:package:5628/1" type="box" library_version="1">
<description>RJ11 Connector
Source: 4UCON TECHNOLOGY INC.  14867.pdf</description>
<packageinstances>
<packageinstance name="14867"/>
</packageinstances>
</package3d>
</packages3d>
<symbols>
<symbol name="RJ11" urn="urn:adsk.eagle:symbol:5626/1" library_version="1">
<wire x1="1.524" y1="5.588" x2="0" y2="5.588" width="0.254" layer="94"/>
<wire x1="0" y1="5.588" x2="0" y2="4.572" width="0.254" layer="94"/>
<wire x1="0" y1="4.572" x2="1.524" y2="4.572" width="0.254" layer="94"/>
<wire x1="1.524" y1="3.048" x2="0" y2="3.048" width="0.254" layer="94"/>
<wire x1="0" y1="3.048" x2="0" y2="2.032" width="0.254" layer="94"/>
<wire x1="0" y1="2.032" x2="1.524" y2="2.032" width="0.254" layer="94"/>
<wire x1="1.524" y1="0.508" x2="0" y2="0.508" width="0.254" layer="94"/>
<wire x1="0" y1="0.508" x2="0" y2="-0.508" width="0.254" layer="94"/>
<wire x1="0" y1="-0.508" x2="1.524" y2="-0.508" width="0.254" layer="94"/>
<wire x1="1.524" y1="-2.032" x2="0" y2="-2.032" width="0.254" layer="94"/>
<wire x1="0" y1="-2.032" x2="0" y2="-3.048" width="0.254" layer="94"/>
<wire x1="0" y1="-3.048" x2="1.524" y2="-3.048" width="0.254" layer="94"/>
<wire x1="2.794" y1="-0.762" x2="5.08" y2="-0.762" width="0.1998" layer="94"/>
<wire x1="5.08" y1="-0.762" x2="5.08" y2="0.254" width="0.1998" layer="94"/>
<wire x1="5.08" y1="0.254" x2="6.35" y2="0.254" width="0.1998" layer="94"/>
<wire x1="6.35" y1="0.254" x2="6.35" y2="2.286" width="0.1998" layer="94"/>
<wire x1="6.35" y1="2.286" x2="5.08" y2="2.286" width="0.1998" layer="94"/>
<wire x1="5.08" y1="2.286" x2="5.08" y2="3.302" width="0.1998" layer="94"/>
<wire x1="5.08" y1="3.302" x2="2.794" y2="3.302" width="0.1998" layer="94"/>
<wire x1="2.794" y1="3.302" x2="2.794" y2="2.032" width="0.1998" layer="94"/>
<wire x1="2.794" y1="2.032" x2="2.794" y2="1.524" width="0.1998" layer="94"/>
<wire x1="2.794" y1="1.524" x2="2.794" y2="1.016" width="0.1998" layer="94"/>
<wire x1="2.794" y1="1.016" x2="2.794" y2="0.508" width="0.1998" layer="94"/>
<wire x1="2.794" y1="0.508" x2="2.794" y2="-0.762" width="0.1998" layer="94"/>
<wire x1="2.794" y1="2.032" x2="3.556" y2="2.032" width="0.1998" layer="94"/>
<wire x1="2.794" y1="1.524" x2="3.556" y2="1.524" width="0.1998" layer="94"/>
<wire x1="2.794" y1="1.016" x2="3.556" y2="1.016" width="0.1998" layer="94"/>
<wire x1="2.794" y1="0.508" x2="3.556" y2="0.508" width="0.1998" layer="94"/>
<text x="-2.54" y="7.62" size="1.778" layer="95">&gt;NAME</text>
<text x="-2.54" y="-5.588" size="1.778" layer="96">&gt;VALUE</text>
<pin name="1" x="-2.54" y="5.08" visible="pad" length="short" direction="pas" swaplevel="1"/>
<pin name="2" x="-2.54" y="2.54" visible="pad" length="short" direction="pas" swaplevel="1"/>
<pin name="3" x="-2.54" y="0" visible="pad" length="short" direction="pas" swaplevel="1"/>
<pin name="4" x="-2.54" y="-2.54" visible="pad" length="short" direction="pas" swaplevel="1"/>
</symbol>
</symbols>
<devicesets>
<deviceset name="14867" urn="urn:adsk.eagle:component:5629/1" prefix="X" library_version="1">
<description>&lt;b&gt;RJ11 Connector&lt;/b&gt;&lt;p&gt;
Source: 4UCON TECHNOLOGY INC.  14867.pdf</description>
<gates>
<gate name="G$1" symbol="RJ11" x="0" y="0"/>
</gates>
<devices>
<device name="" package="14867">
<connects>
<connect gate="G$1" pin="1" pad="1"/>
<connect gate="G$1" pin="2" pad="2"/>
<connect gate="G$1" pin="3" pad="3"/>
<connect gate="G$1" pin="4" pad="4"/>
</connects>
<package3dinstances>
<package3dinstance package3d_urn="urn:adsk.eagle:package:5628/1"/>
</package3dinstances>
<technologies>
<technology name="">
<attribute name="MF" value="" constant="no"/>
<attribute name="MPN" value="" constant="no"/>
<attribute name="OC_FARNELL" value="unknown" constant="no"/>
<attribute name="OC_NEWARK" value="unknown" constant="no"/>
</technology>
</technologies>
</device>
</devices>
</deviceset>
</devicesets>
</library>
<library name="74ttl-din" urn="urn:adsk.eagle:library:84">
<description>&lt;b&gt;TTL Devices with DIN Symbols&lt;/b&gt;&lt;p&gt;
CadSoft and the author do not warrant that this library is free from error
or will meet your specific requirements.&lt;p&gt;
&lt;author&gt;Created by Holger Bettenbühl, hol.bet.@rhein-main.net&lt;/author&gt;</description>
<packages>
<package name="DIL14" urn="urn:adsk.eagle:footprint:1258/1" library_version="1">
<description>&lt;b&gt;Dual In Line Package&lt;/b&gt;</description>
<wire x1="8.89" y1="2.921" x2="-8.89" y2="2.921" width="0.1524" layer="21"/>
<wire x1="-8.89" y1="-2.921" x2="8.89" y2="-2.921" width="0.1524" layer="21"/>
<wire x1="8.89" y1="2.921" x2="8.89" y2="-2.921" width="0.1524" layer="21"/>
<wire x1="-8.89" y1="2.921" x2="-8.89" y2="1.016" width="0.1524" layer="21"/>
<wire x1="-8.89" y1="-2.921" x2="-8.89" y2="-1.016" width="0.1524" layer="21"/>
<wire x1="-8.89" y1="1.016" x2="-8.89" y2="-1.016" width="0.1524" layer="21" curve="-180"/>
<pad name="1" x="-7.62" y="-3.81" drill="0.8128" shape="long" rot="R90"/>
<pad name="2" x="-5.08" y="-3.81" drill="0.8128" shape="long" rot="R90"/>
<pad name="7" x="7.62" y="-3.81" drill="0.8128" shape="long" rot="R90"/>
<pad name="8" x="7.62" y="3.81" drill="0.8128" shape="long" rot="R90"/>
<pad name="3" x="-2.54" y="-3.81" drill="0.8128" shape="long" rot="R90"/>
<pad name="4" x="0" y="-3.81" drill="0.8128" shape="long" rot="R90"/>
<pad name="6" x="5.08" y="-3.81" drill="0.8128" shape="long" rot="R90"/>
<pad name="5" x="2.54" y="-3.81" drill="0.8128" shape="long" rot="R90"/>
<pad name="9" x="5.08" y="3.81" drill="0.8128" shape="long" rot="R90"/>
<pad name="10" x="2.54" y="3.81" drill="0.8128" shape="long" rot="R90"/>
<pad name="11" x="0" y="3.81" drill="0.8128" shape="long" rot="R90"/>
<pad name="12" x="-2.54" y="3.81" drill="0.8128" shape="long" rot="R90"/>
<pad name="13" x="-5.08" y="3.81" drill="0.8128" shape="long" rot="R90"/>
<pad name="14" x="-7.62" y="3.81" drill="0.8128" shape="long" rot="R90"/>
<text x="-9.271" y="-3.048" size="1.27" layer="25" ratio="10" rot="R90">&gt;NAME</text>
<text x="-6.731" y="-0.635" size="1.27" layer="27" ratio="10">&gt;VALUE</text>
</package>
</packages>
<packages3d>
<package3d name="DIL14" urn="urn:adsk.eagle:package:1461/1" type="box" library_version="1">
<description>Dual In Line Package</description>
<packageinstances>
<packageinstance name="DIL14"/>
</packageinstances>
</package3d>
</packages3d>
<symbols>
<symbol name="+UB" urn="urn:adsk.eagle:symbol:1255/1" library_version="1">
<circle x="0" y="-0.635" radius="0.635" width="0.1524" layer="94"/>
<text x="1.27" y="-1.27" size="1.524" layer="95">&gt;NAME</text>
<pin name="+UB" x="0" y="2.54" visible="pad" length="short" direction="pwr" rot="R270"/>
</symbol>
<symbol name="-UB" urn="urn:adsk.eagle:symbol:1256/1" library_version="1">
<wire x1="0" y1="-0.635" x2="0" y2="0.635" width="0" layer="94"/>
<wire x1="0.635" y1="0" x2="-0.635" y2="0" width="0" layer="94"/>
<circle x="0" y="0.635" radius="0.635" width="0.1524" layer="94"/>
<text x="1.27" y="0" size="1.524" layer="95">&gt;NAME</text>
<pin name="-UB" x="0" y="-2.54" visible="pad" length="short" direction="pwr" rot="R90"/>
</symbol>
<symbol name="05" urn="urn:adsk.eagle:symbol:1265/1" library_version="1">
<wire x1="-5.08" y1="-5.08" x2="-5.08" y2="0" width="0.254" layer="94"/>
<wire x1="5.08" y1="5.08" x2="-5.08" y2="5.08" width="0.254" layer="94"/>
<wire x1="5.08" y1="5.08" x2="5.08" y2="1.27" width="0.254" layer="94"/>
<wire x1="-5.08" y1="-5.08" x2="5.08" y2="-5.08" width="0.254" layer="94"/>
<wire x1="7.62" y1="0" x2="5.08" y2="1.27" width="0.1524" layer="94"/>
<wire x1="5.08" y1="1.27" x2="5.08" y2="0" width="0.254" layer="94"/>
<wire x1="-7.62" y1="0" x2="-5.08" y2="0" width="0.1524" layer="94"/>
<wire x1="-5.08" y1="0" x2="-5.08" y2="5.08" width="0.254" layer="94"/>
<wire x1="5.08" y1="0" x2="7.62" y2="0" width="0.1524" layer="94"/>
<wire x1="5.08" y1="0" x2="5.08" y2="-5.08" width="0.254" layer="94"/>
<wire x1="2.3114" y1="-0.9398" x2="3.2512" y2="-0.9398" width="0.1524" layer="94"/>
<wire x1="3.2512" y1="-0.9398" x2="2.3114" y2="0" width="0.1524" layer="94"/>
<wire x1="3.2512" y1="-0.9398" x2="4.191" y2="-0.9398" width="0.1524" layer="94"/>
<wire x1="2.3114" y1="0" x2="3.2512" y2="0.9398" width="0.1524" layer="94"/>
<wire x1="3.2512" y1="0.9398" x2="4.191" y2="0" width="0.1524" layer="94"/>
<wire x1="4.191" y1="0" x2="3.2512" y2="-0.9398" width="0.1524" layer="94"/>
<text x="-5.08" y="5.715" size="2.032" layer="95">&gt;NAME</text>
<text x="-5.08" y="-8.255" size="2.032" layer="96">&gt;VALUE</text>
<text x="-0.3302" y="1.905" size="2.032" layer="94">1</text>
<pin name="A" x="-10.16" y="0" visible="pad" length="short" direction="in"/>
<pin name="Y" x="10.16" y="0" visible="pad" length="short" direction="oc" rot="R180"/>
</symbol>
</symbols>
<devicesets>
<deviceset name="74*05" urn="urn:adsk.eagle:component:1473/1" prefix="V" library_version="1">
<description>Hex &lt;b&gt;INVERTER&lt;/b&gt;, open collector</description>
<gates>
<gate name="/+UB" symbol="+UB" x="15.24" y="12.7" addlevel="request"/>
<gate name="/-UB" symbol="-UB" x="15.24" y="5.08" addlevel="request"/>
<gate name="/1" symbol="05" x="0" y="0" swaplevel="1"/>
<gate name="/2" symbol="05" x="0" y="17.78" swaplevel="1"/>
<gate name="/3" symbol="05" x="0" y="35.56" swaplevel="1"/>
<gate name="/4" symbol="05" x="-25.4" y="0" swaplevel="1"/>
<gate name="/5" symbol="05" x="-25.4" y="17.78" swaplevel="1"/>
<gate name="/6" symbol="05" x="-25.4" y="35.56" swaplevel="1"/>
</gates>
<devices>
<device name="N" package="DIL14">
<connects>
<connect gate="/+UB" pin="+UB" pad="14"/>
<connect gate="/-UB" pin="-UB" pad="7"/>
<connect gate="/1" pin="A" pad="1"/>
<connect gate="/1" pin="Y" pad="2"/>
<connect gate="/2" pin="A" pad="3"/>
<connect gate="/2" pin="Y" pad="4"/>
<connect gate="/3" pin="A" pad="5"/>
<connect gate="/3" pin="Y" pad="6"/>
<connect gate="/4" pin="A" pad="9"/>
<connect gate="/4" pin="Y" pad="8"/>
<connect gate="/5" pin="A" pad="11"/>
<connect gate="/5" pin="Y" pad="10"/>
<connect gate="/6" pin="A" pad="13"/>
<connect gate="/6" pin="Y" pad="12"/>
</connects>
<package3dinstances>
<package3dinstance package3d_urn="urn:adsk.eagle:package:1461/1"/>
</package3dinstances>
<technologies>
<technology name=""/>
</technologies>
</device>
</devices>
</deviceset>
</devicesets>
</library>
<library name="ngspice-simulation" urn="urn:adsk.eagle:library:527439">
<description>SPICE compatible library parts</description>
<packages>
</packages>
<symbols>
<symbol name="0" urn="urn:adsk.eagle:symbol:527455/1" library_version="16">
<description>Simulation ground symbol (spice node 0)</description>
<wire x1="-2.54" y1="0" x2="2.54" y2="0" width="0.1524" layer="94"/>
<wire x1="2.54" y1="0" x2="0" y2="-2.54" width="0.1524" layer="94"/>
<wire x1="0" y1="-2.54" x2="-2.54" y2="0" width="0.1524" layer="94"/>
<pin name="0" x="0" y="0" visible="off" length="point" direction="sup"/>
</symbol>
<symbol name="R" urn="urn:adsk.eagle:symbol:527454/1" library_version="16">
<description>RESISTOR</description>
<wire x1="-2.54" y1="-0.889" x2="2.54" y2="-0.889" width="0.254" layer="94"/>
<wire x1="2.54" y1="0.889" x2="-2.54" y2="0.889" width="0.254" layer="94"/>
<wire x1="2.54" y1="-0.889" x2="2.54" y2="0.889" width="0.254" layer="94"/>
<wire x1="-2.54" y1="-0.889" x2="-2.54" y2="0.889" width="0.254" layer="94"/>
<pin name="1" x="-5.08" y="0" visible="off" length="short" direction="pas" swaplevel="1"/>
<pin name="2" x="5.08" y="0" visible="off" length="short" direction="pas" swaplevel="1" rot="R180"/>
<text x="-2.54" y="2.54" size="1.778" layer="94">&gt;NAME</text>
<text x="-2.54" y="-5.842" size="1.778" layer="94">&gt;SPICEMODEL</text>
<text x="-2.54" y="-3.302" size="1.778" layer="94">&gt;VALUE</text>
<text x="-2.54" y="-8.382" size="1.778" layer="94">&gt;SPICEEXTRA</text>
</symbol>
</symbols>
<devicesets>
<deviceset name="GND" urn="urn:adsk.eagle:component:527478/1" prefix="X_" library_version="16">
<description>Simulation ground symbol (spice node 0)</description>
<gates>
<gate name="G$1" symbol="0" x="0" y="0"/>
</gates>
<devices>
<device name="">
<technologies>
<technology name="">
<attribute name="SPICEGROUND" value=""/>
<attribute name="_EXTERNAL_" value=""/>
</technology>
</technologies>
</device>
</devices>
</deviceset>
<deviceset name="R" urn="urn:adsk.eagle:component:527474/3" prefix="R" uservalue="yes" library_version="16">
<description>RESISTOR</description>
<gates>
<gate name="G$1" symbol="R" x="0" y="0"/>
</gates>
<devices>
<device name="">
<technologies>
<technology name="">
<attribute name="_EXTERNAL_" value="" constant="no"/>
</technology>
</technologies>
</device>
</devices>
<spice>
<pinmapping spiceprefix="R">
<pinmap gate="G$1" pin="1" pinorder="1"/>
<pinmap gate="G$1" pin="2" pinorder="2"/>
</pinmapping>
</spice>
</deviceset>
</devicesets>
</library>
<library name="supply1" urn="urn:adsk.eagle:library:371">
<description>&lt;b&gt;Supply Symbols&lt;/b&gt;&lt;p&gt;
 GND, VCC, 0V, +5V, -5V, etc.&lt;p&gt;
 Please keep in mind, that these devices are necessary for the
 automatic wiring of the supply signals.&lt;p&gt;
 The pin name defined in the symbol is identical to the net which is to be wired automatically.&lt;p&gt;
 In this library the device names are the same as the pin names of the symbols, therefore the correct signal names appear next to the supply symbols in the schematic.&lt;p&gt;
 &lt;author&gt;Created by librarian@cadsoft.de&lt;/author&gt;</description>
<packages>
</packages>
<symbols>
<symbol name="VCC" urn="urn:adsk.eagle:symbol:26928/1" library_version="1">
<wire x1="1.27" y1="-1.905" x2="0" y2="0" width="0.254" layer="94"/>
<wire x1="0" y1="0" x2="-1.27" y2="-1.905" width="0.254" layer="94"/>
<text x="-2.54" y="-2.54" size="1.778" layer="96" rot="R90">&gt;VALUE</text>
<pin name="VCC" x="0" y="-2.54" visible="off" length="short" direction="sup" rot="R90"/>
</symbol>
</symbols>
<devicesets>
<deviceset name="VCC" urn="urn:adsk.eagle:component:26957/1" prefix="P+" library_version="1">
<description>&lt;b&gt;SUPPLY SYMBOL&lt;/b&gt;</description>
<gates>
<gate name="VCC" symbol="VCC" x="0" y="0"/>
</gates>
<devices>
<device name="">
<technologies>
<technology name=""/>
</technologies>
</device>
</devices>
</deviceset>
</devicesets>
</library>
<library name="con-lstb" urn="urn:adsk.eagle:library:162">
<description>&lt;b&gt;Pin Headers&lt;/b&gt;&lt;p&gt;
Naming:&lt;p&gt;
MA = male&lt;p&gt;
# contacts - # rows&lt;p&gt;
W = angled&lt;p&gt;
&lt;author&gt;Created by librarian@cadsoft.de&lt;/author&gt;</description>
<packages>
<package name="MA06-1" urn="urn:adsk.eagle:footprint:8287/1" library_version="1">
<description>&lt;b&gt;PIN HEADER&lt;/b&gt;</description>
<wire x1="-6.985" y1="1.27" x2="-5.715" y2="1.27" width="0.1524" layer="21"/>
<wire x1="-5.715" y1="1.27" x2="-5.08" y2="0.635" width="0.1524" layer="21"/>
<wire x1="-5.08" y1="-0.635" x2="-5.715" y2="-1.27" width="0.1524" layer="21"/>
<wire x1="-5.08" y1="0.635" x2="-4.445" y2="1.27" width="0.1524" layer="21"/>
<wire x1="-4.445" y1="1.27" x2="-3.175" y2="1.27" width="0.1524" layer="21"/>
<wire x1="-3.175" y1="1.27" x2="-2.54" y2="0.635" width="0.1524" layer="21"/>
<wire x1="-2.54" y1="-0.635" x2="-3.175" y2="-1.27" width="0.1524" layer="21"/>
<wire x1="-3.175" y1="-1.27" x2="-4.445" y2="-1.27" width="0.1524" layer="21"/>
<wire x1="-4.445" y1="-1.27" x2="-5.08" y2="-0.635" width="0.1524" layer="21"/>
<wire x1="-7.62" y1="0.635" x2="-7.62" y2="-0.635" width="0.1524" layer="21"/>
<wire x1="-6.985" y1="1.27" x2="-7.62" y2="0.635" width="0.1524" layer="21"/>
<wire x1="-7.62" y1="-0.635" x2="-6.985" y2="-1.27" width="0.1524" layer="21"/>
<wire x1="-5.715" y1="-1.27" x2="-6.985" y2="-1.27" width="0.1524" layer="21"/>
<wire x1="-2.54" y1="0.635" x2="-1.905" y2="1.27" width="0.1524" layer="21"/>
<wire x1="-1.905" y1="1.27" x2="-0.635" y2="1.27" width="0.1524" layer="21"/>
<wire x1="-0.635" y1="1.27" x2="0" y2="0.635" width="0.1524" layer="21"/>
<wire x1="0" y1="-0.635" x2="-0.635" y2="-1.27" width="0.1524" layer="21"/>
<wire x1="-0.635" y1="-1.27" x2="-1.905" y2="-1.27" width="0.1524" layer="21"/>
<wire x1="-1.905" y1="-1.27" x2="-2.54" y2="-0.635" width="0.1524" layer="21"/>
<wire x1="0.635" y1="1.27" x2="1.905" y2="1.27" width="0.1524" layer="21"/>
<wire x1="1.905" y1="1.27" x2="2.54" y2="0.635" width="0.1524" layer="21"/>
<wire x1="2.54" y1="-0.635" x2="1.905" y2="-1.27" width="0.1524" layer="21"/>
<wire x1="2.54" y1="0.635" x2="3.175" y2="1.27" width="0.1524" layer="21"/>
<wire x1="3.175" y1="1.27" x2="4.445" y2="1.27" width="0.1524" layer="21"/>
<wire x1="4.445" y1="1.27" x2="5.08" y2="0.635" width="0.1524" layer="21"/>
<wire x1="5.08" y1="-0.635" x2="4.445" y2="-1.27" width="0.1524" layer="21"/>
<wire x1="4.445" y1="-1.27" x2="3.175" y2="-1.27" width="0.1524" layer="21"/>
<wire x1="3.175" y1="-1.27" x2="2.54" y2="-0.635" width="0.1524" layer="21"/>
<wire x1="0.635" y1="1.27" x2="0" y2="0.635" width="0.1524" layer="21"/>
<wire x1="0" y1="-0.635" x2="0.635" y2="-1.27" width="0.1524" layer="21"/>
<wire x1="1.905" y1="-1.27" x2="0.635" y2="-1.27" width="0.1524" layer="21"/>
<wire x1="5.08" y1="0.635" x2="5.715" y2="1.27" width="0.1524" layer="21"/>
<wire x1="5.715" y1="1.27" x2="6.985" y2="1.27" width="0.1524" layer="21"/>
<wire x1="6.985" y1="1.27" x2="7.62" y2="0.635" width="0.1524" layer="21"/>
<wire x1="7.62" y1="-0.635" x2="6.985" y2="-1.27" width="0.1524" layer="21"/>
<wire x1="6.985" y1="-1.27" x2="5.715" y2="-1.27" width="0.1524" layer="21"/>
<wire x1="5.715" y1="-1.27" x2="5.08" y2="-0.635" width="0.1524" layer="21"/>
<wire x1="7.62" y1="0.635" x2="7.62" y2="-0.635" width="0.1524" layer="21"/>
<pad name="1" x="-6.35" y="0" drill="1.016" shape="long" rot="R90"/>
<pad name="2" x="-3.81" y="0" drill="1.016" shape="long" rot="R90"/>
<pad name="3" x="-1.27" y="0" drill="1.016" shape="long" rot="R90"/>
<pad name="4" x="1.27" y="0" drill="1.016" shape="long" rot="R90"/>
<pad name="5" x="3.81" y="0" drill="1.016" shape="long" rot="R90"/>
<pad name="6" x="6.35" y="0" drill="1.016" shape="long" rot="R90"/>
<text x="-7.62" y="1.651" size="1.27" layer="25" ratio="10">&gt;NAME</text>
<text x="-6.985" y="-2.921" size="1.27" layer="21" ratio="10">1</text>
<text x="5.715" y="1.651" size="1.27" layer="21" ratio="10">6</text>
<text x="-2.54" y="-2.921" size="1.27" layer="27" ratio="10">&gt;VALUE</text>
<rectangle x1="-4.064" y1="-0.254" x2="-3.556" y2="0.254" layer="51"/>
<rectangle x1="-6.604" y1="-0.254" x2="-6.096" y2="0.254" layer="51"/>
<rectangle x1="-1.524" y1="-0.254" x2="-1.016" y2="0.254" layer="51"/>
<rectangle x1="3.556" y1="-0.254" x2="4.064" y2="0.254" layer="51"/>
<rectangle x1="1.016" y1="-0.254" x2="1.524" y2="0.254" layer="51"/>
<rectangle x1="6.096" y1="-0.254" x2="6.604" y2="0.254" layer="51"/>
</package>
</packages>
<packages3d>
<package3d name="MA06-1" urn="urn:adsk.eagle:package:8340/1" type="box" library_version="1">
<description>PIN HEADER</description>
<packageinstances>
<packageinstance name="MA06-1"/>
</packageinstances>
</package3d>
</packages3d>
<symbols>
<symbol name="MA06-1" urn="urn:adsk.eagle:symbol:8286/1" library_version="1">
<wire x1="3.81" y1="-10.16" x2="-1.27" y2="-10.16" width="0.4064" layer="94"/>
<wire x1="1.27" y1="-2.54" x2="2.54" y2="-2.54" width="0.6096" layer="94"/>
<wire x1="1.27" y1="-5.08" x2="2.54" y2="-5.08" width="0.6096" layer="94"/>
<wire x1="1.27" y1="-7.62" x2="2.54" y2="-7.62" width="0.6096" layer="94"/>
<wire x1="1.27" y1="2.54" x2="2.54" y2="2.54" width="0.6096" layer="94"/>
<wire x1="1.27" y1="0" x2="2.54" y2="0" width="0.6096" layer="94"/>
<wire x1="1.27" y1="5.08" x2="2.54" y2="5.08" width="0.6096" layer="94"/>
<wire x1="-1.27" y1="7.62" x2="-1.27" y2="-10.16" width="0.4064" layer="94"/>
<wire x1="3.81" y1="-10.16" x2="3.81" y2="7.62" width="0.4064" layer="94"/>
<wire x1="-1.27" y1="7.62" x2="3.81" y2="7.62" width="0.4064" layer="94"/>
<text x="-1.27" y="-12.7" size="1.778" layer="96">&gt;VALUE</text>
<text x="-1.27" y="8.382" size="1.778" layer="95">&gt;NAME</text>
<pin name="1" x="7.62" y="-7.62" visible="pad" length="middle" direction="pas" swaplevel="1" rot="R180"/>
<pin name="2" x="7.62" y="-5.08" visible="pad" length="middle" direction="pas" swaplevel="1" rot="R180"/>
<pin name="3" x="7.62" y="-2.54" visible="pad" length="middle" direction="pas" swaplevel="1" rot="R180"/>
<pin name="4" x="7.62" y="0" visible="pad" length="middle" direction="pas" swaplevel="1" rot="R180"/>
<pin name="5" x="7.62" y="2.54" visible="pad" length="middle" direction="pas" swaplevel="1" rot="R180"/>
<pin name="6" x="7.62" y="5.08" visible="pad" length="middle" direction="pas" swaplevel="1" rot="R180"/>
</symbol>
</symbols>
<devicesets>
<deviceset name="MA06-1" urn="urn:adsk.eagle:component:8378/1" prefix="SV" uservalue="yes" library_version="1">
<description>&lt;b&gt;PIN HEADER&lt;/b&gt;</description>
<gates>
<gate name="1" symbol="MA06-1" x="0" y="0"/>
</gates>
<devices>
<device name="" package="MA06-1">
<connects>
<connect gate="1" pin="1" pad="1"/>
<connect gate="1" pin="2" pad="2"/>
<connect gate="1" pin="3" pad="3"/>
<connect gate="1" pin="4" pad="4"/>
<connect gate="1" pin="5" pad="5"/>
<connect gate="1" pin="6" pad="6"/>
</connects>
<package3dinstances>
<package3dinstance package3d_urn="urn:adsk.eagle:package:8340/1"/>
</package3dinstances>
<technologies>
<technology name="">
<attribute name="MF" value="" constant="no"/>
<attribute name="MPN" value="" constant="no"/>
<attribute name="OC_FARNELL" value="unknown" constant="no"/>
<attribute name="OC_NEWARK" value="unknown" constant="no"/>
</technology>
</technologies>
</device>
</devices>
</deviceset>
</devicesets>
</library>
</libraries>
<attributes>
</attributes>
<variantdefs>
</variantdefs>
<classes>
<class number="0" name="default" width="0" drill="0">
</class>
</classes>
<parts>
<part name="X1" library="con-4ucon" library_urn="urn:adsk.eagle:library:120" deviceset="14867" device="" package3d_urn="urn:adsk.eagle:package:5628/1"/>
<part name="V1" library="74ttl-din" library_urn="urn:adsk.eagle:library:84" deviceset="74*05" device="N" package3d_urn="urn:adsk.eagle:package:1461/1"/>
<part name="X_1" library="ngspice-simulation" library_urn="urn:adsk.eagle:library:527439" deviceset="GND" device=""/>
<part name="P+1" library="supply1" library_urn="urn:adsk.eagle:library:371" deviceset="VCC" device=""/>
<part name="R1" library="ngspice-simulation" library_urn="urn:adsk.eagle:library:527439" deviceset="R" device="" value="140"/>
<part name="SV1" library="con-lstb" library_urn="urn:adsk.eagle:library:162" deviceset="MA06-1" device="" package3d_urn="urn:adsk.eagle:package:8340/1"/>
</parts>
<sheets>
<sheet>
<plain>
<text x="66.04" y="91.44" size="1.778" layer="91">Hex inverter that accepts an input of 4V and higher as VCC</text>
<text x="25.4" y="63.5" size="1.778" layer="91">Telephone line cable</text>
<text x="30.48" y="93.98" size="1.778" layer="91">USB &lt;-&gt; UART converter</text>
</plain>
<instances>
<instance part="X1" gate="G$1" x="48.26" y="45.72"/>
<instance part="V1" gate="/1" x="99.06" y="66.04"/>
<instance part="X_1" gate="G$1" x="109.22" y="45.72"/>
<instance part="P+1" gate="VCC" x="109.22" y="86.36"/>
<instance part="R1" gate="G$1" x="132.08" y="83.82"/>
<instance part="SV1" gate="1" x="50.8" y="81.28" rot="R180"/>
</instances>
<busses>
</busses>
<nets>
<net name="REQUEST" class="0">
<segment>
<pinref part="X1" gate="G$1" pin="1"/>
<wire x1="45.72" y1="50.8" x2="35.56" y2="50.8" width="0.1524" layer="91"/>
<wire x1="35.56" y1="50.8" x2="35.56" y2="58.42" width="0.1524" layer="91"/>
<label x="35.56" y="58.42" size="1.778" layer="95" xref="yes"/>
</segment>
<segment>
<pinref part="P+1" gate="VCC" pin="VCC"/>
<wire x1="109.22" y1="83.82" x2="109.22" y2="78.74" width="0.1524" layer="91"/>
<label x="109.22" y="78.74" size="1.778" layer="95" xref="yes"/>
<pinref part="R1" gate="G$1" pin="1"/>
<wire x1="109.22" y1="83.82" x2="127" y2="83.82" width="0.1524" layer="91"/>
<junction x="109.22" y="83.82"/>
</segment>
</net>
<net name="GND" class="0">
<segment>
<pinref part="X1" gate="G$1" pin="2"/>
<wire x1="45.72" y1="48.26" x2="33.02" y2="48.26" width="0.1524" layer="91"/>
<label x="33.02" y="48.26" size="1.778" layer="95" rot="R180" xref="yes"/>
</segment>
<segment>
<pinref part="X_1" gate="G$1" pin="0"/>
<wire x1="109.22" y1="45.72" x2="109.22" y2="50.8" width="0.1524" layer="91"/>
<label x="109.22" y="50.8" size="1.778" layer="95" rot="R90" xref="yes"/>
</segment>
<segment>
<pinref part="SV1" gate="1" pin="1"/>
<wire x1="40.64" y1="88.9" x2="43.18" y2="88.9" width="0.1524" layer="91"/>
<label x="40.64" y="88.9" size="1.778" layer="95" rot="R180" xref="yes"/>
</segment>
</net>
<net name="N.C." class="0">
<segment>
<pinref part="X1" gate="G$1" pin="3"/>
<wire x1="45.72" y1="45.72" x2="40.64" y2="45.72" width="0.1524" layer="91"/>
<label x="40.64" y="45.72" size="1.778" layer="95" rot="R180" xref="yes"/>
</segment>
</net>
<net name="DATA" class="0">
<segment>
<pinref part="X1" gate="G$1" pin="4"/>
<wire x1="45.72" y1="43.18" x2="35.56" y2="43.18" width="0.1524" layer="91"/>
<wire x1="35.56" y1="43.18" x2="35.56" y2="33.02" width="0.1524" layer="91"/>
<label x="35.56" y="33.02" size="1.778" layer="95" xref="yes"/>
</segment>
<segment>
<pinref part="V1" gate="/1" pin="A"/>
<wire x1="88.9" y1="66.04" x2="76.2" y2="66.04" width="0.1524" layer="91"/>
<label x="76.2" y="66.04" size="1.778" layer="95" rot="R180" xref="yes"/>
</segment>
<segment>
<pinref part="SV1" gate="1" pin="4"/>
<wire x1="43.18" y1="81.28" x2="40.64" y2="81.28" width="0.1524" layer="91"/>
<label x="40.64" y="81.28" size="1.778" layer="95" rot="R180" xref="yes"/>
</segment>
</net>
<net name="!DATA" class="0">
<segment>
<pinref part="V1" gate="/1" pin="Y"/>
<wire x1="109.22" y1="66.04" x2="119.38" y2="66.04" width="0.1524" layer="91"/>
<label x="127" y="66.04" size="1.778" layer="95" xref="yes"/>
<pinref part="R1" gate="G$1" pin="2"/>
<wire x1="119.38" y1="66.04" x2="127" y2="66.04" width="0.1524" layer="91"/>
<wire x1="137.16" y1="83.82" x2="137.16" y2="73.66" width="0.1524" layer="91"/>
<wire x1="137.16" y1="73.66" x2="119.38" y2="73.66" width="0.1524" layer="91"/>
<wire x1="119.38" y1="73.66" x2="119.38" y2="66.04" width="0.1524" layer="91"/>
<junction x="119.38" y="66.04"/>
</segment>
</net>
<net name="N$1" class="0">
<segment>
<wire x1="63.5" y1="96.52" x2="63.5" y2="38.1" width="0.1524" layer="91"/>
<wire x1="63.5" y1="38.1" x2="147.32" y2="38.1" width="0.1524" layer="91"/>
<wire x1="147.32" y1="38.1" x2="147.32" y2="96.52" width="0.1524" layer="91"/>
<wire x1="147.32" y1="96.52" x2="63.5" y2="96.52" width="0.1524" layer="91"/>
</segment>
</net>
<net name="N$2" class="0">
<segment>
<wire x1="22.86" y1="66.04" x2="58.42" y2="66.04" width="0.1524" layer="91"/>
<wire x1="58.42" y1="66.04" x2="58.42" y2="25.4" width="0.1524" layer="91"/>
<wire x1="58.42" y1="25.4" x2="22.86" y2="25.4" width="0.1524" layer="91"/>
<wire x1="22.86" y1="25.4" x2="22.86" y2="66.04" width="0.1524" layer="91"/>
</segment>
</net>
<net name="CTS" class="0">
<segment>
<pinref part="SV1" gate="1" pin="2"/>
<wire x1="43.18" y1="86.36" x2="40.64" y2="86.36" width="0.1524" layer="91"/>
<label x="40.64" y="86.36" size="1.778" layer="95"/>
</segment>
</net>
<net name="VCC" class="0">
<segment>
<pinref part="SV1" gate="1" pin="3"/>
<wire x1="43.18" y1="83.82" x2="40.64" y2="83.82" width="0.1524" layer="91"/>
<label x="40.64" y="83.82" size="1.778" layer="95"/>
</segment>
</net>
<net name="RX" class="0">
<segment>
<pinref part="SV1" gate="1" pin="5"/>
<wire x1="43.18" y1="78.74" x2="40.64" y2="78.74" width="0.1524" layer="91"/>
<label x="40.64" y="78.74" size="1.778" layer="95"/>
</segment>
</net>
<net name="DTR" class="0">
<segment>
<pinref part="SV1" gate="1" pin="6"/>
<wire x1="43.18" y1="76.2" x2="40.64" y2="76.2" width="0.1524" layer="91"/>
<label x="40.64" y="76.2" size="1.778" layer="95"/>
</segment>
</net>
<net name="N$3" class="0">
<segment>
<wire x1="27.94" y1="96.52" x2="27.94" y2="68.58" width="0.1524" layer="91"/>
<wire x1="27.94" y1="68.58" x2="58.42" y2="68.58" width="0.1524" layer="91"/>
<wire x1="58.42" y1="68.58" x2="58.42" y2="96.52" width="0.1524" layer="91"/>
<wire x1="58.42" y1="96.52" x2="27.94" y2="96.52" width="0.1524" layer="91"/>
</segment>
</net>
</nets>
</sheet>
</sheets>
</schematic>
</drawing>
<compatibility>
<note version="8.2" severity="warning">
Since Version 8.2, EAGLE supports online libraries. The ids
of those online libraries will not be understood (or retained)
with this version.
</note>
<note version="8.3" severity="warning">
Since Version 8.3, EAGLE supports URNs for individual library
assets (packages, symbols, and devices). The URNs of those assets
will not be understood (or retained) with this version.
</note>
<note version="8.3" severity="warning">
Since Version 8.3, EAGLE supports the association of 3D packages
with devices in libraries, schematics, and board files. Those 3D
packages will not be understood (or retained) with this version.
</note>
<note version="8.4" severity="warning">
Since Version 8.4, EAGLE supports properties for SPICE simulation. 
Probes in schematics and SPICE mapping objects found in parts and library devices
will not be understood with this version. Update EAGLE to the latest version
for full support of SPICE simulation. 
</note>
</compatibility>
</eagle>
